Luxembourg Data Project
…
    average_price_nominal_euros = prix_moyen_annonce_en_courant,

    average_price_m2_nominal_euros = prix_moyen_annonce_au_m2_en_courant,

    average_price_m2_nominal_euros = prix_moyen_annonce_au_m2_en_courant

  ) |>

  mutate(locality = str_trim(locality)) |>

  select(year, locality, n_offers, starts_with("average"))

raw_data

# A tibble: 1,343 × 5
   year  locality    n_offers average_price_nominal_euros average_price_m2_nom…¹
   <chr> <chr>          <dbl> <chr>                       <chr>                 
 1 2010  Bascharage       192 593698.31000000006          3603.57               
 2 2010  Beaufort         266 461160.29                   2902.76               
 3 2010  Bech              65 621760.22                   3280.51               
 4 2010  Beckerich        176 444498.68                   2867.88               
 5 2010  Berdorf          111 504040.85                   3055.99               
 6 2010  Bertrange        264 795338.87                   4266.46               
 7 2010  Bettembourg      304 555628.29                   3343.22               
 8 2010  Bettendorf        94 495074.38                   3235.26               
 9 2010  Betzdorf         119 625914.47                   3343.05               
10 2010  Bissen            70 516465.57                   3321.65               
# ℹ 1,333 more rows
# ℹ abbreviated name: ¹​average_price_m2_nominal_euros
…
